^E:\IMAGE-PROCESSING-TOOL\CUTLID\CUTLIDCPP.CPP
E:\IMAGE-PROCESSING-TOOL\CUTLID\X64\DEBUG\VC141.PDB
E:\IMAGE-PROCESSING-TOOL\CUTLID\X64\DEBUG\VC141.IDB
E:\IMAGE-PROCESSING-TOOL\CUTLID\X64\DEBUG\CUTLIDCPP.OBJ
