^E:\IMAGE-PROCESSING-TOOL\CUTLID\X64\DEBUG\CUTLIDCPP.OBJ
E:\IMAGE-PROCESSING-TOOL\GRAY IMAGE\X64\DEBUG\CUTLID.EXE
E:\IMAGE-PROCESSING-TOOL\GRAY IMAGE\X64\DEBUG\CUTLID.ILK
E:\IMAGE-PROCESSING-TOOL\GRAY IMAGE\X64\DEBUG\CUTLID.PDB
