^E:\IMAGE-PROCESSING-TOOL\GRAY IMAGE\SOURCE.CPP
C:\PROGRAM FILES (X86)\MICROSOFT VISUAL STUDIO\2017\ENTERPRISE\VC\TOOLS\MSVC\14.13.26128\BIN\HOSTX86\X64\1033\CLUI.DLL
C:\WINDOWS\GLOBALIZATION\SORTING\SORTDEFAULT.NLS
C:\WINDOWS\SYSTEM32\TZRES.DLL
E:\OPENCV\BUILD\INCLUDE\OPENCV2\IMGPROC\IMGPROC.HPP
E:\OPENCV\BUILD\INCLUDE\OPENCV2\IMGPROC.HPP
E:\OPENCV\BUILD\INCLUDE\OPENCV2\CORE.HPP
E:\OPENCV\BUILD\INCLUDE\OPENCV2\CORE\CVDEF.H
C:\PROGRAM FILES (X86)\MICROSOFT VISUAL STUDIO\2017\ENTERPRISE\VC\TOOLS\MSVC\14.13.26128\INCLUDE\LIMITS.H
C:\PROGRAM FILES (X86)\MICROSOFT VISUAL STUDIO\2017\ENTERPRISE\VC\TOOLS\MSVC\14.13.26128\INCLUDE\VCRUNTIME.H
C:\PROGRAM FILES (X86)\MICROSOFT VISUAL STUDIO\2017\ENTERPRISE\VC\TOOLS\MSVC\14.13.26128\INCLUDE\SAL.H
C:\PROGRAM FILES (X86)\MICROSOFT VISUAL STUDIO\2017\ENTERPRISE\VC\TOOLS\MSVC\14.13.26128\INCLUDE\CONCURRENCYSAL.H
C:\PROGRAM FILES (X86)\MICROSOFT VISUAL STUDIO\2017\ENTERPRISE\VC\TOOLS\MSVC\14.13.26128\INCLUDE\VADEFS.H
E:\OPENCV\BUILD\INCLUDE\OPENCV2\CORE\HAL\INTERFACE.H
C:\PROGRAM FILES (X86)\MICROSOFT VISUAL STUDIO\2017\ENTERPRISE\VC\TOOLS\MSVC\14.13.26128\INCLUDE\CSTDDEF
C:\PROGRAM FILES (X86)\WINDOWS KITS\10\INCLUDE\10.0.16299.0\UCRT\STDDEF.H
C:\PROGRAM FILES (X86)\WINDOWS KITS\10\INCLUDE\10.0.16299.0\UCRT\CORECRT.H
C:\PROGRAM FILES (X86)\MICROSOFT VISUAL STUDIO\2017\ENTERPRISE\VC\TOOLS\MSVC\14.13.26128\INCLUDE\XTR1COMMON
C:\PROGRAM FILES (X86)\MICROSOFT VISUAL STUDIO\2017\ENTERPRISE\VC\TOOLS\MSVC\14.13.26128\INCLUDE\YVALS.H
C:\PROGRAM FILES (X86)\MICROSOFT VISUAL STUDIO\2017\ENTERPRISE\VC\TOOLS\MSVC\14.13.26128\INCLUDE\XKEYCHECK.H
C:\PROGRAM FILES (X86)\MICROSOFT VISUAL STUDIO\2017\ENTERPRISE\VC\TOOLS\MSVC\14.13.26128\INCLUDE\CRTDEFS.H
C:\PROGRAM FILES (X86)\MICROSOFT VISUAL STUDIO\2017\ENTERPRISE\VC\TOOLS\MSVC\14.13.26128\INCLUDE\USE_ANSI.H
E:\OPENCV\BUILD\INCLUDE\OPENCV2\CORE\CV_CPU_DISPATCH.H
C:\PROGRAM FILES (X86)\MICROSOFT VISUAL STUDIO\2017\ENTERPRISE\VC\TOOLS\MSVC\14.13.26128\INCLUDE\EMMINTRIN.H
C:\PROGRAM FILES (X86)\MICROSOFT VISUAL STUDIO\2017\ENTERPRISE\VC\TOOLS\MSVC\14.13.26128\INCLUDE\XMMINTRIN.H
C:\PROGRAM FILES (X86)\MICROSOFT VISUAL STUDIO\2017\ENTERPRISE\VC\TOOLS\MSVC\14.13.26128\INCLUDE\MMINTRIN.H
C:\PROGRAM FILES (X86)\WINDOWS KITS\10\INCLUDE\10.0.16299.0\UCRT\MALLOC.H
C:\PROGRAM FILES (X86)\WINDOWS KITS\10\INCLUDE\10.0.16299.0\UCRT\CORECRT_MALLOC.H
C:\PROGRAM FILES (X86)\MICROSOFT VISUAL STUDIO\2017\ENTERPRISE\VC\TOOLS\MSVC\14.13.26128\INCLUDE\INTRIN.H
C:\PROGRAM FILES (X86)\MICROSOFT VISUAL STUDIO\2017\ENTERPRISE\VC\TOOLS\MSVC\14.13.26128\INCLUDE\INTRIN0.H
C:\PROGRAM FILES (X86)\MICROSOFT VISUAL STUDIO\2017\ENTERPRISE\VC\TOOLS\MSVC\14.13.26128\INCLUDE\SETJMP.H
C:\PROGRAM FILES (X86)\MICROSOFT VISUAL STUDIO\2017\ENTERPRISE\VC\TOOLS\MSVC\14.13.26128\INCLUDE\IMMINTRIN.H
C:\PROGRAM FILES (X86)\MICROSOFT VISUAL STUDIO\2017\ENTERPRISE\VC\TOOLS\MSVC\14.13.26128\INCLUDE\WMMINTRIN.H
C:\PROGRAM FILES (X86)\MICROSOFT VISUAL STUDIO\2017\ENTERPRISE\VC\TOOLS\MSVC\14.13.26128\INCLUDE\NMMINTRIN.H
C:\PROGRAM FILES (X86)\MICROSOFT VISUAL STUDIO\2017\ENTERPRISE\VC\TOOLS\MSVC\14.13.26128\INCLUDE\SMMINTRIN.H
C:\PROGRAM FILES (X86)\MICROSOFT VISUAL STUDIO\2017\ENTERPRISE\VC\TOOLS\MSVC\14.13.26128\INCLUDE\TMMINTRIN.H
C:\PROGRAM FILES (X86)\MICROSOFT VISUAL STUDIO\2017\ENTERPRISE\VC\TOOLS\MSVC\14.13.26128\INCLUDE\PMMINTRIN.H
C:\PROGRAM FILES (X86)\MICROSOFT VISUAL STUDIO\2017\ENTERPRISE\VC\TOOLS\MSVC\14.13.26128\INCLUDE\ZMMINTRIN.H
C:\PROGRAM FILES (X86)\MICROSOFT VISUAL STUDIO\2017\ENTERPRISE\VC\TOOLS\MSVC\14.13.26128\INCLUDE\AMMINTRIN.H
C:\PROGRAM FILES (X86)\MICROSOFT VISUAL STUDIO\2017\ENTERPRISE\VC\TOOLS\MSVC\14.13.26128\INCLUDE\ARRAY
C:\PROGRAM FILES (X86)\MICROSOFT VISUAL STUDIO\2017\ENTERPRISE\VC\TOOLS\MSVC\14.13.26128\INCLUDE\ALGORITHM
C:\PROGRAM FILES (X86)\MICROSOFT VISUAL STUDIO\2017\ENTERPRISE\VC\TOOLS\MSVC\14.13.26128\INCLUDE\XMEMORY
C:\PROGRAM FILES (X86)\MICROSOFT VISUAL STUDIO\2017\ENTERPRISE\VC\TOOLS\MSVC\14.13.26128\INCLUDE\XMEMORY0
C:\PROGRAM FILES (X86)\MICROSOFT VISUAL STUDIO\2017\ENTERPRISE\VC\TOOLS\MSVC\14.13.26128\INCLUDE\CSTDINT
C:\PROGRAM FILES (X86)\MICROSOFT VISUAL STUDIO\2017\ENTERPRISE\VC\TOOLS\MSVC\14.13.26128\INCLUDE\STDINT.H
C:\PROGRAM FILES (X86)\MICROSOFT VISUAL STUDIO\2017\ENTERPRISE\VC\TOOLS\MSVC\14.13.26128\INCLUDE\CSTDLIB
C:\PROGRAM FILES (X86)\WINDOWS KITS\10\INCLUDE\10.0.16299.0\UCRT\STDLIB.H
C:\PROGRAM FILES (X86)\WINDOWS KITS\10\INCLUDE\10.0.16299.0\UCRT\CORECRT_SEARCH.H
C:\PROGRAM FILES (X86)\WINDOWS KITS\10\INCLUDE\10.0.16299.0\UCRT\CORECRT_WSTDLIB.H
C:\PROGRAM FILES (X86)\WINDOWS KITS\10\INCLUDE\10.0.16299.0\UCRT\MATH.H
C:\PROGRAM FILES (X86)\WINDOWS KITS\10\INCLUDE\10.0.16299.0\UCRT\CORECRT_MATH.H
C:\PROGRAM FILES (X86)\MICROSOFT VISUAL STUDIO\2017\ENTERPRISE\VC\TOOLS\MSVC\14.13.26128\INCLUDE\LIMITS
C:\PROGRAM FILES (X86)\MICROSOFT VISUAL STUDIO\2017\ENTERPRISE\VC\TOOLS\MSVC\14.13.26128\INCLUDE\YMATH.H
C:\PROGRAM FILES (X86)\MICROSOFT VISUAL STUDIO\2017\ENTERPRISE\VC\TOOLS\MSVC\14.13.26128\INCLUDE\CFLOAT
C:\PROGRAM FILES (X86)\WINDOWS KITS\10\INCLUDE\10.0.16299.0\UCRT\FLOAT.H
C:\PROGRAM FILES (X86)\MICROSOFT VISUAL STUDIO\2017\ENTERPRISE\VC\TOOLS\MSVC\14.13.26128\INCLUDE\CLIMITS
C:\PROGRAM FILES (X86)\MICROSOFT VISUAL STUDIO\2017\ENTERPRISE\VC\TOOLS\MSVC\14.13.26128\INCLUDE\CMATH
C:\PROGRAM FILES (X86)\MICROSOFT VISUAL STUDIO\2017\ENTERPRISE\VC\TOOLS\MSVC\14.13.26128\INCLUDE\XTGMATH.H
C:\PROGRAM FILES (X86)\MICROSOFT VISUAL STUDIO\2017\ENTERPRISE\VC\TOOLS\MSVC\14.13.26128\INCLUDE\CWCHAR
C:\PROGRAM FILES (X86)\WINDOWS KITS\10\INCLUDE\10.0.16299.0\UCRT\WCHAR.H
C:\PROGRAM FILES (X86)\WINDOWS KITS\10\INCLUDE\10.0.16299.0\UCRT\CORECRT_MEMCPY_S.H
C:\PROGRAM FILES (X86)\WINDOWS KITS\10\INCLUDE\10.0.16299.0\UCRT\ERRNO.H
C:\PROGRAM FILES (X86)\MICROSOFT VISUAL STUDIO\2017\ENTERPRISE\VC\TOOLS\MSVC\14.13.26128\INCLUDE\VCRUNTIME_STRING.H
C:\PROGRAM FILES (X86)\WINDOWS KITS\10\INCLUDE\10.0.16299.0\UCRT\CORECRT_WCONIO.H
C:\PROGRAM FILES (X86)\WINDOWS KITS\10\INCLUDE\10.0.16299.0\UCRT\CORECRT_STDIO_CONFIG.H
C:\PROGRAM FILES (X86)\WINDOWS KITS\10\INCLUDE\10.0.16299.0\UCRT\CORECRT_WCTYPE.H
C:\PROGRAM FILES (X86)\WINDOWS KITS\10\INCLUDE\10.0.16299.0\UCRT\CORECRT_WDIRECT.H
C:\PROGRAM FILES (X86)\WINDOWS KITS\10\INCLUDE\10.0.16299.0\UCRT\CORECRT_WIO.H
C:\PROGRAM FILES (X86)\WINDOWS KITS\10\INCLUDE\10.0.16299.0\UCRT\CORECRT_SHARE.H
C:\PROGRAM FILES (X86)\WINDOWS KITS\10\INCLUDE\10.0.16299.0\UCRT\CORECRT_WPROCESS.H
C:\PROGRAM FILES (X86)\WINDOWS KITS\10\INCLUDE\10.0.16299.0\UCRT\CORECRT_WSTDIO.H
C:\PROGRAM FILES (X86)\WINDOWS KITS\10\INCLUDE\10.0.16299.0\UCRT\CORECRT_WSTRING.H
C:\PROGRAM FILES (X86)\WINDOWS KITS\10\INCLUDE\10.0.16299.0\UCRT\CORECRT_WTIME.H
C:\PROGRAM FILES (X86)\WINDOWS KITS\10\INCLUDE\10.0.16299.0\UCRT\SYS\STAT.H
C:\PROGRAM FILES (X86)\WINDOWS KITS\10\INCLUDE\10.0.16299.0\UCRT\SYS\TYPES.H
C:\PROGRAM FILES (X86)\MICROSOFT VISUAL STUDIO\2017\ENTERPRISE\VC\TOOLS\MSVC\14.13.26128\INCLUDE\XSTDDEF
C:\PROGRAM FILES (X86)\MICROSOFT VISUAL STUDIO\2017\ENTERPRISE\VC\TOOLS\MSVC\14.13.26128\INCLUDE\INITIALIZER_LIST
C:\PROGRAM FILES (X86)\MICROSOFT VISUAL STUDIO\2017\ENTERPRISE\VC\TOOLS\MSVC\14.13.26128\INCLUDE\NEW
C:\PROGRAM FILES (X86)\MICROSOFT VISUAL STUDIO\2017\ENTERPRISE\VC\TOOLS\MSVC\14.13.26128\INCLUDE\EXCEPTION
C:\PROGRAM FILES (X86)\MICROSOFT VISUAL STUDIO\2017\ENTERPRISE\VC\TOOLS\MSVC\14.13.26128\INCLUDE\TYPE_TRAITS
C:\PROGRAM FILES (X86)\MICROSOFT VISUAL STUDIO\2017\ENTERPRISE\VC\TOOLS\MSVC\14.13.26128\INCLUDE\VCRUNTIME_EXCEPTION.H
C:\PROGRAM FILES (X86)\MICROSOFT VISUAL STUDIO\2017\ENTERPRISE\VC\TOOLS\MSVC\14.13.26128\INCLUDE\EH.H
C:\PROGRAM FILES (X86)\WINDOWS KITS\10\INCLUDE\10.0.16299.0\UCRT\CORECRT_TERMINATE.H
C:\PROGRAM FILES (X86)\MICROSOFT VISUAL STUDIO\2017\ENTERPRISE\VC\TOOLS\MSVC\14.13.26128\INCLUDE\VCRUNTIME_NEW.H
C:\PROGRAM FILES (X86)\MICROSOFT VISUAL STUDIO\2017\ENTERPRISE\VC\TOOLS\MSVC\14.13.26128\INCLUDE\XUTILITY
C:\PROGRAM FILES (X86)\MICROSOFT VISUAL STUDIO\2017\ENTERPRISE\VC\TOOLS\MSVC\14.13.26128\INCLUDE\UTILITY
C:\PROGRAM FILES (X86)\MICROSOFT VISUAL STUDIO\2017\ENTERPRISE\VC\TOOLS\MSVC\14.13.26128\INCLUDE\IOSFWD
C:\PROGRAM FILES (X86)\MICROSOFT VISUAL STUDIO\2017\ENTERPRISE\VC\TOOLS\MSVC\14.13.26128\INCLUDE\CSTDIO
C:\PROGRAM FILES (X86)\WINDOWS KITS\10\INCLUDE\10.0.16299.0\UCRT\STDIO.H
C:\PROGRAM FILES (X86)\MICROSOFT VISUAL STUDIO\2017\ENTERPRISE\VC\TOOLS\MSVC\14.13.26128\INCLUDE\CSTRING
C:\PROGRAM FILES (X86)\WINDOWS KITS\10\INCLUDE\10.0.16299.0\UCRT\STRING.H
C:\PROGRAM FILES (X86)\WINDOWS KITS\10\INCLUDE\10.0.16299.0\UCRT\CORECRT_MEMORY.H
C:\PROGRAM FILES (X86)\WINDOWS KITS\10\INCLUDE\10.0.16299.0\UCRT\CRTDBG.H
C:\PROGRAM FILES (X86)\MICROSOFT VISUAL STUDIO\2017\ENTERPRISE\VC\TOOLS\MSVC\14.13.26128\INCLUDE\VCRUNTIME_NEW_DEBUG.H
C:\PROGRAM FILES (X86)\MICROSOFT VISUAL STUDIO\2017\ENTERPRISE\VC\TOOLS\MSVC\14.13.26128\INCLUDE\XATOMIC0.H
C:\PROGRAM FILES (X86)\MICROSOFT VISUAL STUDIO\2017\ENTERPRISE\VC\TOOLS\MSVC\14.13.26128\INCLUDE\ITERATOR
C:\PROGRAM FILES (X86)\MICROSOFT VISUAL STUDIO\2017\ENTERPRISE\VC\TOOLS\MSVC\14.13.26128\INCLUDE\ISTREAM
C:\PROGRAM FILES (X86)\MICROSOFT VISUAL STUDIO\2017\ENTERPRISE\VC\TOOLS\MSVC\14.13.26128\INCLUDE\OSTREAM
C:\PROGRAM FILES (X86)\MICROSOFT VISUAL STUDIO\2017\ENTERPRISE\VC\TOOLS\MSVC\14.13.26128\INCLUDE\IOS
C:\PROGRAM FILES (X86)\MICROSOFT VISUAL STUDIO\2017\ENTERPRISE\VC\TOOLS\MSVC\14.13.26128\INCLUDE\XLOCNUM
C:\PROGRAM FILES (X86)\MICROSOFT VISUAL STUDIO\2017\ENTERPRISE\VC\TOOLS\MSVC\14.13.26128\INCLUDE\STREAMBUF
C:\PROGRAM FILES (X86)\MICROSOFT VISUAL STUDIO\2017\ENTERPRISE\VC\TOOLS\MSVC\14.13.26128\INCLUDE\XIOSBASE
C:\PROGRAM FILES (X86)\MICROSOFT VISUAL STUDIO\2017\ENTERPRISE\VC\TOOLS\MSVC\14.13.26128\INCLUDE\XLOCALE
C:\PROGRAM FILES (X86)\MICROSOFT VISUAL STUDIO\2017\ENTERPRISE\VC\TOOLS\MSVC\14.13.26128\INCLUDE\STDEXCEPT
C:\PROGRAM FILES (X86)\MICROSOFT VISUAL STUDIO\2017\ENTERPRISE\VC\TOOLS\MSVC\14.13.26128\INCLUDE\XSTRING
C:\PROGRAM FILES (X86)\MICROSOFT VISUAL STUDIO\2017\ENTERPRISE\VC\TOOLS\MSVC\14.13.26128\INCLUDE\TYPEINFO
C:\PROGRAM FILES (X86)\MICROSOFT VISUAL STUDIO\2017\ENTERPRISE\VC\TOOLS\MSVC\14.13.26128\INCLUDE\VCRUNTIME_TYPEINFO.H
C:\PROGRAM FILES (X86)\MICROSOFT VISUAL STUDIO\2017\ENTERPRISE\VC\TOOLS\MSVC\14.13.26128\INCLUDE\XLOCINFO
C:\PROGRAM FILES (X86)\MICROSOFT VISUAL STUDIO\2017\ENTERPRISE\VC\TOOLS\MSVC\14.13.26128\INCLUDE\XLOCINFO.H
C:\PROGRAM FILES (X86)\WINDOWS KITS\10\INCLUDE\10.0.16299.0\UCRT\CTYPE.H
C:\PROGRAM FILES (X86)\WINDOWS KITS\10\INCLUDE\10.0.16299.0\UCRT\LOCALE.H
C:\PROGRAM FILES (X86)\MICROSOFT VISUAL STUDIO\2017\ENTERPRISE\VC\TOOLS\MSVC\14.13.26128\INCLUDE\XFACET
C:\PROGRAM FILES (X86)\MICROSOFT VISUAL STUDIO\2017\ENTERPRISE\VC\TOOLS\MSVC\14.13.26128\INCLUDE\SYSTEM_ERROR
C:\PROGRAM FILES (X86)\MICROSOFT VISUAL STUDIO\2017\ENTERPRISE\VC\TOOLS\MSVC\14.13.26128\INCLUDE\CERRNO
C:\PROGRAM FILES (X86)\MICROSOFT VISUAL STUDIO\2017\ENTERPRISE\VC\TOOLS\MSVC\14.13.26128\INCLUDE\XCALL_ONCE.H
C:\PROGRAM FILES (X86)\WINDOWS KITS\10\INCLUDE\10.0.16299.0\UCRT\SHARE.H
C:\PROGRAM FILES (X86)\MICROSOFT VISUAL STUDIO\2017\ENTERPRISE\VC\TOOLS\MSVC\14.13.26128\INCLUDE\TUPLE
E:\OPENCV\BUILD\INCLUDE\OPENCV2\CORE\VERSION.HPP
E:\OPENCV\BUILD\INCLUDE\OPENCV2\CORE\BASE.HPP
E:\OPENCV\BUILD\INCLUDE\OPENCV2\OPENCV_MODULES.HPP
E:\OPENCV\BUILD\INCLUDE\OPENCV2\CORE\CVSTD.HPP
C:\PROGRAM FILES (X86)\MICROSOFT VISUAL STUDIO\2017\ENTERPRISE\VC\TOOLS\MSVC\14.13.26128\INCLUDE\CCTYPE
C:\PROGRAM FILES (X86)\MICROSOFT VISUAL STUDIO\2017\ENTERPRISE\VC\TOOLS\MSVC\14.13.26128\INCLUDE\STRING
C:\PROGRAM FILES (X86)\MICROSOFT VISUAL STUDIO\2017\ENTERPRISE\VC\TOOLS\MSVC\14.13.26128\INCLUDE\XSTRING_INSERT.H
E:\OPENCV\BUILD\INCLUDE\OPENCV2\CORE\PTR.INL.HPP
E:\OPENCV\BUILD\INCLUDE\OPENCV2\CORE\NEON_UTILS.HPP
E:\OPENCV\BUILD\INCLUDE\OPENCV2\CORE\VSX_UTILS.HPP
C:\PROGRAM FILES (X86)\WINDOWS KITS\10\INCLUDE\10.0.16299.0\UCRT\ASSERT.H
E:\OPENCV\BUILD\INCLUDE\OPENCV2\CORE\TRAITS.HPP
E:\OPENCV\BUILD\INCLUDE\OPENCV2\CORE\MATX.HPP
E:\OPENCV\BUILD\INCLUDE\OPENCV2\CORE\SATURATE.HPP
E:\OPENCV\BUILD\INCLUDE\OPENCV2\CORE\FAST_MATH.HPP
E:\OPENCV\BUILD\INCLUDE\OPENCV2\CORE\TYPES.HPP
C:\PROGRAM FILES (X86)\MICROSOFT VISUAL STUDIO\2017\ENTERPRISE\VC\TOOLS\MSVC\14.13.26128\INCLUDE\VECTOR
E:\OPENCV\BUILD\INCLUDE\OPENCV2\CORE\MAT.HPP
E:\OPENCV\BUILD\INCLUDE\OPENCV2\CORE\BUFFERPOOL.HPP
E:\OPENCV\BUILD\INCLUDE\OPENCV2\CORE\MAT.INL.HPP
E:\OPENCV\BUILD\INCLUDE\OPENCV2\CORE\PERSISTENCE.HPP
E:\OPENCV\BUILD\INCLUDE\OPENCV2\CORE\OPERATIONS.HPP
E:\OPENCV\BUILD\INCLUDE\OPENCV2\CORE\CVSTD.INL.HPP
C:\PROGRAM FILES (X86)\MICROSOFT VISUAL STUDIO\2017\ENTERPRISE\VC\TOOLS\MSVC\14.13.26128\INCLUDE\COMPLEX
C:\PROGRAM FILES (X86)\MICROSOFT VISUAL STUDIO\2017\ENTERPRISE\VC\TOOLS\MSVC\14.13.26128\INCLUDE\SSTREAM
C:\PROGRAM FILES (X86)\MICROSOFT VISUAL STUDIO\2017\ENTERPRISE\VC\TOOLS\MSVC\14.13.26128\INCLUDE\XCOMPLEX
E:\OPENCV\BUILD\INCLUDE\OPENCV2\CORE\UTILITY.HPP
C:\PROGRAM FILES (X86)\MICROSOFT VISUAL STUDIO\2017\ENTERPRISE\VC\TOOLS\MSVC\14.13.26128\INCLUDE\FUNCTIONAL
C:\PROGRAM FILES (X86)\MICROSOFT VISUAL STUDIO\2017\ENTERPRISE\VC\TOOLS\MSVC\14.13.26128\INCLUDE\XFUNCTIONAL
E:\OPENCV\BUILD\INCLUDE\OPENCV2\CORE\CORE_C.H
E:\OPENCV\BUILD\INCLUDE\OPENCV2\CORE\TYPES_C.H
E:\OPENCV\BUILD\INCLUDE\OPENCV2\CORE\OPTIM.HPP
E:\OPENCV\BUILD\INCLUDE\OPENCV2\CORE\OVX.HPP
E:\OPENCV\BUILD\INCLUDE\OPENCV2\IMGPROC\IMGPROC_C.H
E:\OPENCV\BUILD\INCLUDE\OPENCV2\IMGPROC\TYPES_C.H
E:\OPENCV\BUILD\INCLUDE\OPENCV2\HIGHGUI\HIGHGUI.HPP
E:\OPENCV\BUILD\INCLUDE\OPENCV2\HIGHGUI.HPP
E:\OPENCV\BUILD\INCLUDE\OPENCV2\IMGCODECS.HPP
E:\OPENCV\BUILD\INCLUDE\OPENCV2\VIDEOIO.HPP
E:\OPENCV\BUILD\INCLUDE\OPENCV2\HIGHGUI\HIGHGUI_C.H
E:\OPENCV\BUILD\INCLUDE\OPENCV2\IMGCODECS\IMGCODECS_C.H
E:\OPENCV\BUILD\INCLUDE\OPENCV2\VIDEOIO\VIDEOIO_C.H
E:\OPENCV\BUILD\INCLUDE\OPENCV2\OPENCV.HPP
E:\OPENCV\BUILD\INCLUDE\OPENCV2\CALIB3D.HPP
E:\OPENCV\BUILD\INCLUDE\OPENCV2\FEATURES2D.HPP
E:\OPENCV\BUILD\INCLUDE\OPENCV2\FLANN\MINIFLANN.HPP
E:\OPENCV\BUILD\INCLUDE\OPENCV2\FLANN\DEFINES.H
E:\OPENCV\BUILD\INCLUDE\OPENCV2\FLANN\CONFIG.H
E:\OPENCV\BUILD\INCLUDE\OPENCV2\CORE\AFFINE.HPP
E:\OPENCV\BUILD\INCLUDE\OPENCV2\CALIB3D\CALIB3D_C.H
E:\OPENCV\BUILD\INCLUDE\OPENCV2\DNN.HPP
E:\OPENCV\BUILD\INCLUDE\OPENCV2\DNN\DNN.HPP
E:\OPENCV\BUILD\INCLUDE\OPENCV2\DNN\DICT.HPP
C:\PROGRAM FILES (X86)\MICROSOFT VISUAL STUDIO\2017\ENTERPRISE\VC\TOOLS\MSVC\14.13.26128\INCLUDE\MAP
C:\PROGRAM FILES (X86)\MICROSOFT VISUAL STUDIO\2017\ENTERPRISE\VC\TOOLS\MSVC\14.13.26128\INCLUDE\XTREE
E:\OPENCV\BUILD\INCLUDE\OPENCV2\DNN\LAYER.HPP
E:\OPENCV\BUILD\INCLUDE\OPENCV2\DNN\DNN.INL.HPP
E:\OPENCV\BUILD\INCLUDE\OPENCV2\FLANN.HPP
E:\OPENCV\BUILD\INCLUDE\OPENCV2\FLANN\FLANN_BASE.HPP
C:\PROGRAM FILES (X86)\MICROSOFT VISUAL STUDIO\2017\ENTERPRISE\VC\TOOLS\MSVC\14.13.26128\INCLUDE\CASSERT
E:\OPENCV\BUILD\INCLUDE\OPENCV2\FLANN\GENERAL.H
E:\OPENCV\BUILD\INCLUDE\OPENCV2\FLANN\MATRIX.H
E:\OPENCV\BUILD\INCLUDE\OPENCV2\FLANN\PARAMS.H
E:\OPENCV\BUILD\INCLUDE\OPENCV2\FLANN\ANY.H
C:\PROGRAM FILES (X86)\MICROSOFT VISUAL STUDIO\2017\ENTERPRISE\VC\TOOLS\MSVC\14.13.26128\INCLUDE\IOSTREAM
E:\OPENCV\BUILD\INCLUDE\OPENCV2\FLANN\SAVING.H
E:\OPENCV\BUILD\INCLUDE\OPENCV2\FLANN\NN_INDEX.H
E:\OPENCV\BUILD\INCLUDE\OPENCV2\FLANN\RESULT_SET.H
C:\PROGRAM FILES (X86)\MICROSOFT VISUAL STUDIO\2017\ENTERPRISE\VC\TOOLS\MSVC\14.13.26128\INCLUDE\SET
E:\OPENCV\BUILD\INCLUDE\OPENCV2\FLANN\ALL_INDICES.H
E:\OPENCV\BUILD\INCLUDE\OPENCV2\FLANN\KDTREE_INDEX.H
E:\OPENCV\BUILD\INCLUDE\OPENCV2\FLANN\DYNAMIC_BITSET.H
E:\OPENCV\BUILD\INCLUDE\OPENCV2\FLANN\DIST.H
E:\OPENCV\BUILD\INCLUDE\OPENCV2\FLANN\HEAP.H
E:\OPENCV\BUILD\INCLUDE\OPENCV2\FLANN\ALLOCATOR.H
E:\OPENCV\BUILD\INCLUDE\OPENCV2\FLANN\RANDOM.H
E:\OPENCV\BUILD\INCLUDE\OPENCV2\FLANN\KDTREE_SINGLE_INDEX.H
E:\OPENCV\BUILD\INCLUDE\OPENCV2\FLANN\KMEANS_INDEX.H
E:\OPENCV\BUILD\INCLUDE\OPENCV2\FLANN\LOGGER.H
C:\PROGRAM FILES (X86)\MICROSOFT VISUAL STUDIO\2017\ENTERPRISE\VC\TOOLS\MSVC\14.13.26128\INCLUDE\STDARG.H
E:\OPENCV\BUILD\INCLUDE\OPENCV2\FLANN\COMPOSITE_INDEX.H
E:\OPENCV\BUILD\INCLUDE\OPENCV2\FLANN\LINEAR_INDEX.H
E:\OPENCV\BUILD\INCLUDE\OPENCV2\FLANN\HIERARCHICAL_CLUSTERING_INDEX.H
E:\OPENCV\BUILD\INCLUDE\OPENCV2\FLANN\LSH_INDEX.H
E:\OPENCV\BUILD\INCLUDE\OPENCV2\FLANN\LSH_TABLE.H
C:\PROGRAM FILES (X86)\MICROSOFT VISUAL STUDIO\2017\ENTERPRISE\VC\TOOLS\MSVC\14.13.26128\INCLUDE\IOMANIP
C:\PROGRAM FILES (X86)\MICROSOFT VISUAL STUDIO\2017\ENTERPRISE\VC\TOOLS\MSVC\14.13.26128\INCLUDE\XLOCMON
C:\PROGRAM FILES (X86)\MICROSOFT VISUAL STUDIO\2017\ENTERPRISE\VC\TOOLS\MSVC\14.13.26128\INCLUDE\XLOCTIME
C:\PROGRAM FILES (X86)\MICROSOFT VISUAL STUDIO\2017\ENTERPRISE\VC\TOOLS\MSVC\14.13.26128\INCLUDE\CTIME
C:\PROGRAM FILES (X86)\WINDOWS KITS\10\INCLUDE\10.0.16299.0\UCRT\TIME.H
E:\OPENCV\BUILD\INCLUDE\OPENCV2\FLANN\AUTOTUNED_INDEX.H
E:\OPENCV\BUILD\INCLUDE\OPENCV2\FLANN\GROUND_TRUTH.H
E:\OPENCV\BUILD\INCLUDE\OPENCV2\FLANN\INDEX_TESTING.H
E:\OPENCV\BUILD\INCLUDE\OPENCV2\FLANN\TIMER.H
E:\OPENCV\BUILD\INCLUDE\OPENCV2\FLANN\SAMPLING.H
E:\OPENCV\BUILD\INCLUDE\OPENCV2\ML.HPP
E:\OPENCV\BUILD\INCLUDE\OPENCV2\ML\ML.INL.HPP
E:\OPENCV\BUILD\INCLUDE\OPENCV2\OBJDETECT.HPP
E:\OPENCV\BUILD\INCLUDE\OPENCV2\OBJDETECT\DETECTION_BASED_TRACKER.HPP
E:\OPENCV\BUILD\INCLUDE\OPENCV2\OBJDETECT\OBJDETECT_C.H
C:\PROGRAM FILES (X86)\MICROSOFT VISUAL STUDIO\2017\ENTERPRISE\VC\TOOLS\MSVC\14.13.26128\INCLUDE\DEQUE
E:\OPENCV\BUILD\INCLUDE\OPENCV2\PHOTO.HPP
E:\OPENCV\BUILD\INCLUDE\OPENCV2\PHOTO\PHOTO_C.H
E:\OPENCV\BUILD\INCLUDE\OPENCV2\SHAPE.HPP
E:\OPENCV\BUILD\INCLUDE\OPENCV2\SHAPE\EMDL1.HPP
E:\OPENCV\BUILD\INCLUDE\OPENCV2\SHAPE\SHAPE_TRANSFORMER.HPP
E:\OPENCV\BUILD\INCLUDE\OPENCV2\SHAPE\HIST_COST.HPP
E:\OPENCV\BUILD\INCLUDE\OPENCV2\SHAPE\SHAPE_DISTANCE.HPP
E:\OPENCV\BUILD\INCLUDE\OPENCV2\STITCHING.HPP
E:\OPENCV\BUILD\INCLUDE\OPENCV2\STITCHING\WARPERS.HPP
E:\OPENCV\BUILD\INCLUDE\OPENCV2\STITCHING\DETAIL\WARPERS.HPP
E:\OPENCV\BUILD\INCLUDE\OPENCV2\CORE\CUDA.HPP
E:\OPENCV\BUILD\INCLUDE\OPENCV2\CORE\CUDA_TYPES.HPP
E:\OPENCV\BUILD\INCLUDE\OPENCV2\CORE\CUDA.INL.HPP
E:\OPENCV\BUILD\INCLUDE\OPENCV2\STITCHING\DETAIL\WARPERS_INL.HPP
E:\OPENCV\BUILD\INCLUDE\OPENCV2\STITCHING\DETAIL\MATCHERS.HPP
E:\OPENCV\BUILD\INCLUDE\OPENCV2\STITCHING\DETAIL\MOTION_ESTIMATORS.HPP
E:\OPENCV\BUILD\INCLUDE\OPENCV2\STITCHING\DETAIL\UTIL.HPP
C:\PROGRAM FILES (X86)\MICROSOFT VISUAL STUDIO\2017\ENTERPRISE\VC\TOOLS\MSVC\14.13.26128\INCLUDE\LIST
E:\OPENCV\BUILD\INCLUDE\OPENCV2\STITCHING\DETAIL\UTIL_INL.HPP
C:\PROGRAM FILES (X86)\MICROSOFT VISUAL STUDIO\2017\ENTERPRISE\VC\TOOLS\MSVC\14.13.26128\INCLUDE\QUEUE
E:\OPENCV\BUILD\INCLUDE\OPENCV2\STITCHING\DETAIL\CAMERA.HPP
E:\OPENCV\BUILD\INCLUDE\OPENCV2\STITCHING\DETAIL\EXPOSURE_COMPENSATE.HPP
E:\OPENCV\BUILD\INCLUDE\OPENCV2\STITCHING\DETAIL\SEAM_FINDERS.HPP
E:\OPENCV\BUILD\INCLUDE\OPENCV2\STITCHING\DETAIL\BLENDERS.HPP
E:\OPENCV\BUILD\INCLUDE\OPENCV2\SUPERRES.HPP
E:\OPENCV\BUILD\INCLUDE\OPENCV2\SUPERRES\OPTICAL_FLOW.HPP
E:\OPENCV\BUILD\INCLUDE\OPENCV2\VIDEO.HPP
E:\OPENCV\BUILD\INCLUDE\OPENCV2\VIDEO\TRACKING.HPP
E:\OPENCV\BUILD\INCLUDE\OPENCV2\VIDEO\BACKGROUND_SEGM.HPP
E:\OPENCV\BUILD\INCLUDE\OPENCV2\VIDEO\TRACKING_C.H
E:\OPENCV\BUILD\INCLUDE\OPENCV2\VIDEOSTAB.HPP
E:\OPENCV\BUILD\INCLUDE\OPENCV2\VIDEOSTAB\STABILIZER.HPP
E:\OPENCV\BUILD\INCLUDE\OPENCV2\VIDEOSTAB\GLOBAL_MOTION.HPP
C:\PROGRAM FILES (X86)\MICROSOFT VISUAL STUDIO\2017\ENTERPRISE\VC\TOOLS\MSVC\14.13.26128\INCLUDE\FSTREAM
E:\OPENCV\BUILD\INCLUDE\OPENCV2\VIDEOSTAB\OPTICAL_FLOW.HPP
E:\OPENCV\BUILD\INCLUDE\OPENCV2\VIDEOSTAB\MOTION_CORE.HPP
E:\OPENCV\BUILD\INCLUDE\OPENCV2\VIDEOSTAB\OUTLIER_REJECTION.HPP
E:\OPENCV\BUILD\INCLUDE\OPENCV2\VIDEOSTAB\MOTION_STABILIZING.HPP
E:\OPENCV\BUILD\INCLUDE\OPENCV2\VIDEOSTAB\FRAME_SOURCE.HPP
E:\OPENCV\BUILD\INCLUDE\OPENCV2\VIDEOSTAB\LOG.HPP
E:\OPENCV\BUILD\INCLUDE\OPENCV2\VIDEOSTAB\INPAINTING.HPP
E:\OPENCV\BUILD\INCLUDE\OPENCV2\VIDEOSTAB\FAST_MARCHING.HPP
E:\OPENCV\BUILD\INCLUDE\OPENCV2\VIDEOSTAB\FAST_MARCHING_INL.HPP
E:\OPENCV\BUILD\INCLUDE\OPENCV2\VIDEOSTAB\DEBLURRING.HPP
E:\OPENCV\BUILD\INCLUDE\OPENCV2\VIDEOSTAB\WOBBLE_SUPPRESSION.HPP
E:\OPENCV\BUILD\INCLUDE\OPENCV2\VIDEOSTAB\RING_BUFFER.HPP
C:\PROGRAM FILES (X86)\MICROSOFT VISUAL STUDIO\2017\ENTERPRISE\VC\TOOLS\MSVC\14.13.26128\INCLUDE\FILESYSTEM
C:\PROGRAM FILES (X86)\MICROSOFT VISUAL STUDIO\2017\ENTERPRISE\VC\TOOLS\MSVC\14.13.26128\INCLUDE\CHRONO
C:\PROGRAM FILES (X86)\MICROSOFT VISUAL STUDIO\2017\ENTERPRISE\VC\TOOLS\MSVC\14.13.26128\INCLUDE\RATIO
C:\PROGRAM FILES (X86)\MICROSOFT VISUAL STUDIO\2017\ENTERPRISE\VC\TOOLS\MSVC\14.13.26128\INCLUDE\THR\XTIMEC.H
C:\PROGRAM FILES (X86)\MICROSOFT VISUAL STUDIO\2017\ENTERPRISE\VC\TOOLS\MSVC\14.13.26128\INCLUDE\THR\XTHRCOMMON.H
C:\PROGRAM FILES (X86)\MICROSOFT VISUAL STUDIO\2017\ENTERPRISE\VC\TOOLS\MSVC\14.13.26128\INCLUDE\CODECVT
C:\PROGRAM FILES (X86)\MICROSOFT VISUAL STUDIO\2017\ENTERPRISE\VC\TOOLS\MSVC\14.13.26128\INCLUDE\LOCALE
C:\PROGRAM FILES (X86)\MICROSOFT VISUAL STUDIO\2017\ENTERPRISE\VC\TOOLS\MSVC\14.13.26128\INCLUDE\XLOCBUF
C:\PROGRAM FILES (X86)\MICROSOFT VISUAL STUDIO\2017\ENTERPRISE\VC\TOOLS\MSVC\14.13.26128\INCLUDE\XLOCMES
C:\PROGRAM FILES (X86)\MICROSOFT VISUAL STUDIO\2017\ENTERPRISE\VC\TOOLS\MSVC\14.13.26128\INCLUDE\MEMORY
C:\PROGRAM FILES (X86)\WINDOWS KITS\10\INCLUDE\10.0.16299.0\UCRT\IO.H
C:\PROGRAM FILES (X86)\WINDOWS KITS\10\INCLUDE\10.0.16299.0\UCRT\CORECRT_IO.H
C:\PROGRAM FILES (X86)\WINDOWS KITS\10\INCLUDE\10.0.16299.0\UCRT\DIRECT.H
