^E:\IMAGE-PROCESSING-TOOL\MORPHOLOGY\X64\DEBUG\SOURCE.OBJ
E:\IMAGE-PROCESSING-TOOL\GRAY IMAGE\X64\DEBUG\MORPHOLOGY.ILK
E:\IMAGE-PROCESSING-TOOL\GRAY IMAGE\X64\DEBUG\MORPHOLOGY.EXE
E:\IMAGE-PROCESSING-TOOL\GRAY IMAGE\X64\DEBUG\MORPHOLOGY.PDB
