^E:\IMAGE-PROCESSING-TOOL\POLYGONTEST\SOURCE.CPP
E:\IMAGE-PROCESSING-TOOL\POLYGONTEST\X64\DEBUG\VC141.PDB
E:\IMAGE-PROCESSING-TOOL\POLYGONTEST\X64\DEBUG\VC141.IDB
E:\IMAGE-PROCESSING-TOOL\POLYGONTEST\X64\DEBUG\SOURCE.OBJ
