^E:\IMAGE-PROCESSING-TOOL\POLYGONTEST\X64\DEBUG\SOURCE.OBJ
E:\IMAGE-PROCESSING-TOOL\GRAY IMAGE\X64\DEBUG\POLYGONTEST.EXE
E:\IMAGE-PROCESSING-TOOL\GRAY IMAGE\X64\DEBUG\POLYGONTEST.ILK
E:\IMAGE-PROCESSING-TOOL\GRAY IMAGE\X64\DEBUG\POLYGONTEST.PDB
