^E:\IMAGE-PROCESSING-TOOL\TEMPLATEMATCHING\SOURCE.CPP
E:\IMAGE-PROCESSING-TOOL\TEMPLATEMATCHING\X64\DEBUG\VC141.PDB
E:\IMAGE-PROCESSING-TOOL\TEMPLATEMATCHING\X64\DEBUG\VC141.IDB
E:\IMAGE-PROCESSING-TOOL\TEMPLATEMATCHING\X64\DEBUG\SOURCE.OBJ
