^E:\IMAGE-PROCESSING-TOOL\CANNY EDGE\CANNYEDGE.CPP
E:\IMAGE-PROCESSING-TOOL\CANNY EDGE\X64\DEBUG\VC141.PDB
E:\IMAGE-PROCESSING-TOOL\CANNY EDGE\X64\DEBUG\VC141.IDB
E:\IMAGE-PROCESSING-TOOL\CANNY EDGE\X64\DEBUG\CANNYEDGE.OBJ
