^E:\IMAGE-PROCESSING-TOOL\CANNY EDGE\X64\DEBUG\CANNYEDGE.OBJ
E:\IMAGE-PROCESSING-TOOL\GRAY IMAGE\X64\DEBUG\CANNY EDGE.EXE
E:\IMAGE-PROCESSING-TOOL\GRAY IMAGE\X64\DEBUG\CANNY EDGE.ILK
E:\IMAGE-PROCESSING-TOOL\GRAY IMAGE\X64\DEBUG\CANNY EDGE.PDB
