^E:\IMAGE-PROCESSING-TOOL\HISTOGRAMEQUALIZATION\X64\RELEASE\HISTOGRAMEQUALIZATION.OBJ
E:\IMAGE-PROCESSING-TOOL\GRAY IMAGE\X64\RELEASE\HISTOGRAMEQUALIZATION.EXE
E:\IMAGE-PROCESSING-TOOL\GRAY IMAGE\X64\RELEASE\HISTOGRAMEQUALIZATION.PDB
