^E:\IMAGE-PROCESSING-TOOL\SHEARING-AFFINE\SHEARING-AFFINE.CPP
E:\IMAGE-PROCESSING-TOOL\SHEARING-AFFINE\X64\DEBUG\VC141.PDB
E:\IMAGE-PROCESSING-TOOL\SHEARING-AFFINE\X64\DEBUG\VC141.IDB
E:\IMAGE-PROCESSING-TOOL\SHEARING-AFFINE\X64\DEBUG\SHEARING-AFFINE.OBJ
