^E:\IMAGE-PROCESSING-TOOL\THRESOLDING TRACKBAR\TRACKBAR.CPP
E:\IMAGE-PROCESSING-TOOL\THRESOLDING TRACKBAR\X64\DEBUG\VC141.PDB
E:\IMAGE-PROCESSING-TOOL\THRESOLDING TRACKBAR\X64\DEBUG\VC141.IDB
E:\IMAGE-PROCESSING-TOOL\THRESOLDING TRACKBAR\X64\DEBUG\TRACKBAR.OBJ
