^E:\IMAGE-PROCESSING-TOOL\HISTOGRAMSTRECHING\X64\DEBUG\SOURCE.OBJ
E:\IMAGE-PROCESSING-TOOL\GRAY IMAGE\X64\DEBUG\HISTOGRAMSTRECHING.EXE
E:\IMAGE-PROCESSING-TOOL\GRAY IMAGE\X64\DEBUG\HISTOGRAMSTRECHING.ILK
E:\IMAGE-PROCESSING-TOOL\GRAY IMAGE\X64\DEBUG\HISTOGRAMSTRECHING.PDB
